{
    "interpreterPrefix":">>>",
    "commandPrefix":"/",
    "bootMessage":[
        "Welcome to xAkiraMiura's Resanant-Profiles.",
        "You can use /commandPrefix/create to make new profiles."
    ]
}